[{"id":1,"first_name":"Farah","last_name":"Stollard","email":"fstollard0@liveinternet.ru","country":"South Korea"},
{"id":2,"first_name":"Evey","last_name":"Steven","email":"esteven1@hugedomains.com","country":"Spain"},
{"id":3,"first_name":"Shela","last_name":"Cossons","email":"scossons2@psu.edu","country":"Colombia"},
{"id":4,"first_name":"Jolee","last_name":"Bunney","email":"jbunney3@google.fr","country":"Sweden"},
{"id":5,"first_name":"Susi","last_name":"Gusney","email":"sgusney4@simplemachines.org","country":"Malaysia"},
{"id":6,"first_name":"Theodosia","last_name":"Epilet","email":"tepilet5@last.fm","country":"Myanmar"},
{"id":7,"first_name":"Ciel","last_name":"Gue","email":"cgue6@livejournal.com","country":"Paraguay"},
{"id":8,"first_name":"Shandra","last_name":"Cleverley","email":"scleverley7@seattletimes.com","country":"Egypt"},
{"id":9,"first_name":"Aubry","last_name":"Lismore","email":"alismore8@etsy.com","country":"Philippines"},
{"id":10,"first_name":"Mollie","last_name":"Scurrah","email":"mscurrah9@discovery.com","country":"Philippines"},
{"id":11,"first_name":"Lester","last_name":"Adriaan","email":"ladriaana@rakuten.co.jp","country":"Poland"},
{"id":12,"first_name":"Adrienne","last_name":"Merrell","email":"amerrellb@mozilla.com","country":"Ukraine"},
{"id":13,"first_name":"Kalie","last_name":"Elliman","email":"kellimanc@xrea.com","country":"Iran"},
{"id":14,"first_name":"Farly","last_name":"Stone Fewings","email":"fstonefewingsd@devhub.com","country":"Venezuela"},
{"id":15,"first_name":"Etheline","last_name":"Roycraft","email":"eroycrafte@skype.com","country":"Nigeria"},
{"id":16,"first_name":"Essa","last_name":"Roberts","email":"erobertsf@ycombinator.com","country":"Russia"},
{"id":17,"first_name":"Margarethe","last_name":"Nijs","email":"mnijsg@elegantthemes.com","country":"Poland"},
{"id":18,"first_name":"Caryn","last_name":"Baack","email":"cbaackh@apache.org","country":"Portugal"},
{"id":19,"first_name":"Erie","last_name":"Piggrem","email":"epiggremi@adobe.com","country":"China"},
{"id":20,"first_name":"Kally","last_name":"Andrejevic","email":"kandrejevicj@cnbc.com","country":"Indonesia"},
{"id":21,"first_name":"Sherye","last_name":"Overel","email":"soverelk@cyberchimps.com","country":"Indonesia"},
{"id":22,"first_name":"Margo","last_name":"Bartaloni","email":"mbartalonil@nhs.uk","country":"Paraguay"},
{"id":23,"first_name":"Vincenz","last_name":"Fermin","email":"vferminm@foxnews.com","country":"Russia"},
{"id":24,"first_name":"Jan","last_name":"Simao","email":"jsimaon@yahoo.com","country":"Czech Republic"},
{"id":25,"first_name":"Sanson","last_name":"Banthorpe","email":"sbanthorpeo@over-blog.com","country":"Pakistan"},
{"id":26,"first_name":"Tait","last_name":"Goor","email":"tgoorp@theglobeandmail.com","country":"Pakistan"},
{"id":27,"first_name":"Hagan","last_name":"Cobbledick","email":"hcobbledickq@tamu.edu","country":"Argentina"},
{"id":28,"first_name":"Marlane","last_name":"Burtwhistle","email":"mburtwhistler@chron.com","country":"Poland"},
{"id":29,"first_name":"Elliott","last_name":"Palin","email":"epalins@nymag.com","country":"China"},
{"id":30,"first_name":"Dacy","last_name":"Loveguard","email":"dloveguardt@weibo.com","country":"Albania"},
{"id":31,"first_name":"Giana","last_name":"Lumox","email":"glumoxu@dell.com","country":"Indonesia"},
{"id":32,"first_name":"Cayla","last_name":"Mcasparan","email":"cmcasparanv@naver.com","country":"Poland"},
{"id":33,"first_name":"Valdemar","last_name":"Almond","email":"valmondw@chron.com","country":"South Africa"},
{"id":34,"first_name":"Darb","last_name":"Epinay","email":"depinayx@nytimes.com","country":"Canada"},
{"id":35,"first_name":"Pattie","last_name":"Cleveley","email":"pcleveleyy@salon.com","country":"Australia"},
{"id":36,"first_name":"Cece","last_name":"Menguy","email":"cmenguyz@instagram.com","country":"Haiti"},
{"id":37,"first_name":"Pascal","last_name":"Tash","email":"ptash10@purevolume.com","country":"Peru"},
{"id":38,"first_name":"Jacquelin","last_name":"Fridlington","email":"jfridlington11@bloglovin.com","country":"China"},
{"id":39,"first_name":"Valaree","last_name":"Christer","email":"vchrister12@wikimedia.org","country":"China"},
{"id":40,"first_name":"Carlita","last_name":"Scammell","email":"cscammell13@yale.edu","country":"China"},
{"id":41,"first_name":"Marie-jeanne","last_name":"Hanvey","email":"mhanvey14@addthis.com","country":"China"},
{"id":42,"first_name":"Silvan","last_name":"Stothert","email":"sstothert15@hp.com","country":"China"},
{"id":43,"first_name":"Delia","last_name":"Leonard","email":"dleonard16@mysql.com","country":"Iran"},
{"id":44,"first_name":"Grover","last_name":"Finnes","email":"gfinnes17@marriott.com","country":"Sweden"},
{"id":45,"first_name":"Robena","last_name":"Hawarden","email":"rhawarden18@japanpost.jp","country":"Portugal"},
{"id":46,"first_name":"Conni","last_name":"Carrell","email":"ccarrell19@clickbank.net","country":"Vietnam"},
{"id":47,"first_name":"Mathilda","last_name":"Emnoney","email":"memnoney1a@ft.com","country":"Iraq"},
{"id":48,"first_name":"Chrystel","last_name":"Iianon","email":"ciianon1b@free.fr","country":"Sweden"},
{"id":49,"first_name":"Ardelia","last_name":"Sands-Allan","email":"asandsallan1c@360.cn","country":"Russia"},
{"id":50,"first_name":"Ambrosi","last_name":"Lyddon","email":"alyddon1d@networksolutions.com","country":"China"},
{"id":51,"first_name":"Rhonda","last_name":"Jozef","email":"rjozef1e@aboutads.info","country":"China"},
{"id":52,"first_name":"Addison","last_name":"Doerffer","email":"adoerffer1f@weebly.com","country":"Greece"},
{"id":53,"first_name":"Swen","last_name":"Killik","email":"skillik1g@mediafire.com","country":"Thailand"},
{"id":54,"first_name":"Gretel","last_name":"Winchester","email":"gwinchester1h@state.gov","country":"Nigeria"},
{"id":55,"first_name":"Shawn","last_name":"Gurko","email":"sgurko1i@yahoo.co.jp","country":"Japan"},
{"id":56,"first_name":"Tallie","last_name":"Ditch","email":"tditch1j@imageshack.us","country":"Japan"},
{"id":57,"first_name":"Tiena","last_name":"Billsberry","email":"tbillsberry1k@ed.gov","country":"Indonesia"},
{"id":58,"first_name":"Onida","last_name":"Stoddard","email":"ostoddard1l@whitehouse.gov","country":"Egypt"},
{"id":59,"first_name":"Ole","last_name":"Wiffen","email":"owiffen1m@dot.gov","country":"Czech Republic"},
{"id":60,"first_name":"Darren","last_name":"Heineke","email":"dheineke1n@state.gov","country":"Samoa"},
{"id":61,"first_name":"Benedetto","last_name":"Burrow","email":"bburrow1o@friendfeed.com","country":"Indonesia"},
{"id":62,"first_name":"Gannie","last_name":"Fleischmann","email":"gfleischmann1p@wisc.edu","country":"Sweden"},
{"id":63,"first_name":"Maressa","last_name":"Traher","email":"mtraher1q@nationalgeographic.com","country":"Spain"},
{"id":64,"first_name":"Gabbie","last_name":"Gunney","email":"ggunney1r@bloglovin.com","country":"Russia"},
{"id":65,"first_name":"Tilly","last_name":"Shevlan","email":"tshevlan1s@reference.com","country":"Nigeria"},
{"id":66,"first_name":"Josephine","last_name":"McAllan","email":"jmcallan1t@technorati.com","country":"Iraq"},
{"id":67,"first_name":"Antonietta","last_name":"Meanwell","email":"ameanwell1u@edublogs.org","country":"China"},
{"id":68,"first_name":"Peri","last_name":"Riddell","email":"priddell1v@google.ru","country":"Portugal"},
{"id":69,"first_name":"Mordecai","last_name":"Farrington","email":"mfarrington1w@scribd.com","country":"Azerbaijan"},
{"id":70,"first_name":"Pincus","last_name":"Ellacombe","email":"pellacombe1x@prweb.com","country":"Guatemala"},
{"id":71,"first_name":"Hart","last_name":"Littlemore","email":"hlittlemore1y@ycombinator.com","country":"Chad"},
{"id":72,"first_name":"Moses","last_name":"Mound","email":"mmound1z@weibo.com","country":"Mexico"},
{"id":73,"first_name":"Vin","last_name":"Breslauer","email":"vbreslauer20@netlog.com","country":"Zimbabwe"},
{"id":74,"first_name":"Terrijo","last_name":"Krollmann","email":"tkrollmann21@vk.com","country":"Togo"},
{"id":75,"first_name":"Briney","last_name":"Copnar","email":"bcopnar22@pcworld.com","country":"Brazil"},
{"id":76,"first_name":"Eleonore","last_name":"Colbridge","email":"ecolbridge23@goo.gl","country":"South Africa"},
{"id":77,"first_name":"Shari","last_name":"Woodford","email":"swoodford24@wix.com","country":"Croatia"},
{"id":78,"first_name":"Roby","last_name":"Jiggens","email":"rjiggens25@usda.gov","country":"Tunisia"},
{"id":79,"first_name":"Randie","last_name":"Proudler","email":"rproudler26@photobucket.com","country":"Croatia"},
{"id":80,"first_name":"Amaleta","last_name":"Birkmyre","email":"abirkmyre27@csmonitor.com","country":"Canada"},
{"id":81,"first_name":"Hillard","last_name":"Oneil","email":"honeil28@google.pl","country":"China"},
{"id":82,"first_name":"Erhard","last_name":"McLoughlin","email":"emcloughlin29@bloomberg.com","country":"Brazil"},
{"id":83,"first_name":"Tyson","last_name":"Kimmings","email":"tkimmings2a@comcast.net","country":"China"},
{"id":84,"first_name":"Bernardina","last_name":"Stubbert","email":"bstubbert2b@slideshare.net","country":"Philippines"},
{"id":85,"first_name":"Sapphire","last_name":"Bassingden","email":"sbassingden2c@desdev.cn","country":"Kyrgyzstan"},
{"id":86,"first_name":"Lawrence","last_name":"Igglesden","email":"ligglesden2d@exblog.jp","country":"Indonesia"},
{"id":87,"first_name":"Hyman","last_name":"Eusden","email":"heusden2e@un.org","country":"Russia"},
{"id":88,"first_name":"Audrey","last_name":"Simioli","email":"asimioli2f@uol.com.br","country":"Philippines"},
{"id":89,"first_name":"Eb","last_name":"Harraway","email":"eharraway2g@123-reg.co.uk","country":"United States"},
{"id":90,"first_name":"Joachim","last_name":"Thunnercliff","email":"jthunnercliff2h@desdev.cn","country":"Russia"},
{"id":91,"first_name":"Beulah","last_name":"Bazeley","email":"bbazeley2i@symantec.com","country":"Hungary"},
{"id":92,"first_name":"Austine","last_name":"Gales","email":"agales2j@livejournal.com","country":"Georgia"},
{"id":93,"first_name":"Milty","last_name":"Ransom","email":"mransom2k@friendfeed.com","country":"Ethiopia"},
{"id":94,"first_name":"Lyndel","last_name":"Mains","email":"lmains2l@fda.gov","country":"Mexico"},
{"id":95,"first_name":"Georg","last_name":"Gumey","email":"ggumey2m@nba.com","country":"Indonesia"},
{"id":96,"first_name":"Cristionna","last_name":"Grimwood","email":"cgrimwood2n@reverbnation.com","country":"China"},
{"id":97,"first_name":"Lewie","last_name":"McDavitt","email":"lmcdavitt2o@oracle.com","country":"China"},
{"id":98,"first_name":"Gretchen","last_name":"Jahndel","email":"gjahndel2p@techcrunch.com","country":"France"},
{"id":99,"first_name":"Effie","last_name":"Kynsey","email":"ekynsey2q@netlog.com","country":"China"},
{"id":100,"first_name":"Casper","last_name":"Wrench","email":"cwrench2r@thetimes.co.uk","country":"Portugal"}]